{
	"info": {
		"_postman_id": "e1193c66-c1f5-44e1-bccb-77d054cd50a3",
		"name": "Curso Laravel",
		"schema": "https://schema.getpostman.com/json/collection/v2.1.0/collection.json"
	},
	"item": [
		{
			"name": "Auth",
			"description": "",
			"item": [
				{
					"name": "{{host}}/auth/token",
					"event": [
						{
							"listen": "test",
							"script": {
								"id": "92876923-1eaa-4956-bb1f-efd13a55e80e",
								"type": "text/javascript",
								"exec": [
									"postman.setEnvironmentVariable(\"UserToken\", JSON.parse(responseBody).access_token);"
								]
							}
						}
					],
					"request": {
						"method": "POST",
						"header": [
							{
								"key": "Content-Type",
								"value": "application/json"
							}
						],
						"body": {
							"mode": "raw",
							"raw": "{\n\t \"grant_type\" : \"password\",\n     \"client_id\" : \"3\",\n     \"client_secret\" : \"nfZyIsgDO3I3kJdKv154xpDLkAfTcYLG7TvmEpKK\",\n     \"username\" : \"admin@gmail.com\",\n     \"password\" : \"123\",\n     \"scope\" : \"\"\n}"
						},
						"url": {
							"raw": "{{host}}/oauth/token",
							"host": [
								"{{host}}"
							],
							"path": [
								"oauth",
								"token"
							]
						}
					},
					"response": []
				}
			]
		},
		{
			"name": "User",
			"description": "",
			"item": [
				{
					"name": "{{host}}/api/user",
					"event": [
						{
							"listen": "test",
							"script": {
								"id": "f129ce28-add1-46a1-a6e3-dd33e638b40d",
								"type": "text/javascript",
								"exec": [
									"postman.setEnvironmentVariable(\"UserId\", JSON.parse(responseBody)[0].id);"
								]
							}
						}
					],
					"request": {
						"method": "GET",
						"header": [
							{
								"key": "Authorization",
								"value": "Bearer  {{UserToken}}"
							}
						],
						"body": {},
						"url": {
							"raw": "{{host}}/api/user",
							"host": [
								"{{host}}"
							],
							"path": [
								"api",
								"user"
							]
						}
					},
					"response": []
				},
				{
					"name": "{{host}}/api/user",
					"request": {
						"method": "POST",
						"header": [
							{
								"key": "Content-Type",
								"value": "application/json"
							}
						],
						"body": {
							"mode": "raw",
							"raw": "{\n  \"name\":\"Nataniel\",\n  \"email\":\"nataniel@gmail.com\",\n  \"password\":\"123\"\n}"
						},
						"url": {
							"raw": "{{host}}/api/user",
							"host": [
								"{{host}}"
							],
							"path": [
								"api",
								"user"
							]
						}
					},
					"response": []
				},
				{
					"name": "{{host}}/api/user/{id}",
					"event": [
						{
							"listen": "test",
							"script": {
								"id": "f959454a-5156-466e-ae70-4047353ddc35",
								"type": "text/javascript",
								"exec": [
									""
								]
							}
						}
					],
					"request": {
						"method": "GET",
						"header": [],
						"body": {},
						"url": {
							"raw": "{{host}}/api/user/{{UserId}}",
							"host": [
								"{{host}}"
							],
							"path": [
								"api",
								"user",
								"{{UserId}}"
							]
						}
					},
					"response": []
				},
				{
					"name": "{{host}}/api/user/{id}",
					"request": {
						"method": "PUT",
						"header": [
							{
								"key": "Content-Type",
								"value": "application/json"
							}
						],
						"body": {
							"mode": "raw",
							"raw": "{\n  \"name\":\"Nataniel\",\n  \"email\":\"fulano@gmail.com\"\n}"
						},
						"url": {
							"raw": "{{host}}/api/user/{{UserId}}",
							"host": [
								"{{host}}"
							],
							"path": [
								"api",
								"user",
								"{{UserId}}"
							]
						}
					},
					"response": []
				},
				{
					"name": "{{host}}/api/user/{id}",
					"event": [
						{
							"listen": "test",
							"script": {
								"id": "f959454a-5156-466e-ae70-4047353ddc35",
								"type": "text/javascript",
								"exec": [
									""
								]
							}
						}
					],
					"request": {
						"method": "DELETE",
						"header": [],
						"body": {},
						"url": {
							"raw": "{{host}}/api/user/{{UserId}}",
							"host": [
								"{{host}}"
							],
							"path": [
								"api",
								"user",
								"{{UserId}}"
							]
						}
					},
					"response": []
				}
			]
		}
	]
}